{
	"info": {
		"_postman_id": "201e4d93-66c5-4f1c-be73-ae76617b9d60",
		"name": "s32",
		"schema": "https://schema.getpostman.com/json/collection/v2.1.0/collection.json",
		"_exporter_id": "7919381"
	},
	"item": [
		{
			"name": "activity",
			"item": [
				{
					"name": "get request/homepage",
					"request": {
						"method": "GET",
						"header": [],
						"url": {
							"raw": "http://localhost:4000/",
							"protocol": "http",
							"host": [
								"localhost"
							],
							"port": "4000",
							"path": [
								""
							]
						}
					},
					"response": []
				},
				{
					"name": "getRequest/profile",
					"request": {
						"method": "GET",
						"header": [],
						"url": {
							"raw": "http://localhost:4000/profile",
							"protocol": "http",
							"host": [
								"localhost"
							],
							"port": "4000",
							"path": [
								"profile"
							]
						}
					},
					"response": []
				},
				{
					"name": "getRequest/courses",
					"request": {
						"method": "GET",
						"header": [],
						"url": {
							"raw": "http://localhost:4000/courses",
							"protocol": "http",
							"host": [
								"localhost"
							],
							"port": "4000",
							"path": [
								"courses"
							]
						}
					},
					"response": []
				},
				{
					"name": "postRequest/addCourse",
					"request": {
						"method": "POST",
						"header": [],
						"url": {
							"raw": "http://localhost:4000/addcourse",
							"protocol": "http",
							"host": [
								"localhost"
							],
							"port": "4000",
							"path": [
								"addcourse"
							]
						}
					},
					"response": []
				},
				{
					"name": "putRequest/updateCourse",
					"request": {
						"method": "PUT",
						"header": [],
						"url": {
							"raw": "http://localhost:4000/updatecourse",
							"protocol": "http",
							"host": [
								"localhost"
							],
							"port": "4000",
							"path": [
								"updatecourse"
							]
						}
					},
					"response": []
				},
				{
					"name": "deleteRequest/archiveCourse",
					"request": {
						"method": "DELETE",
						"header": [],
						"url": {
							"raw": "http://localhost:4000/archivecourse",
							"protocol": "http",
							"host": [
								"localhost"
							],
							"port": "4000",
							"path": [
								"archivecourse"
							]
						}
					},
					"response": []
				}
			]
		},
		{
			"name": "get request",
			"request": {
				"method": "GET",
				"header": [],
				"url": {
					"raw": "http://localhost:4000/items",
					"protocol": "http",
					"host": [
						"localhost"
					],
					"port": "4000",
					"path": [
						"items"
					]
				}
			},
			"response": []
		},
		{
			"name": "post request",
			"request": {
				"method": "POST",
				"header": [],
				"body": {
					"mode": "raw",
					"raw": "{\r\n    \"name\": \"John\",\r\n    \"email\": \"john@mail.com\"\r\n}",
					"options": {
						"raw": {
							"language": "json"
						}
					}
				},
				"url": {
					"raw": "http://localhost:4000/users",
					"protocol": "http",
					"host": [
						"localhost"
					],
					"port": "4000",
					"path": [
						"users"
					]
				}
			},
			"response": []
		}
	]
}